EESchema Schematic File Version 2
LIBS:power
LIBS:device
LIBS:transistors
LIBS:conn
LIBS:linear
LIBS:regul
LIBS:74xx
LIBS:cmos4000
LIBS:adc-dac
LIBS:memory
LIBS:xilinx
LIBS:special
LIBS:microcontrollers
LIBS:dsp
LIBS:microchip
LIBS:analog_switches
LIBS:motorola
LIBS:texas
LIBS:intel
LIBS:audio
LIBS:interface
LIBS:digital-audio
LIBS:philips
LIBS:display
LIBS:cypress
LIBS:siliconi
LIBS:opto
LIBS:atmel
LIBS:contrib
LIBS:valves
LIBS:detection_obstruction-cache
EELAYER 25 0
EELAYER END
$Descr A4 11693 8268
encoding utf-8
Sheet 1 1
Title "Détection d'obsruction"
Date "mar 11 aoû 2015"
Rev "--"
Comp "CEGEP de La Pocatière"
Comment1 "International."
Comment2 "licence Creative Commons Attribution - Partage dans les Mêmes Conditions 4.0"
Comment3 "Ce(tte) œuvre de Jean-Sébastien Castonguay est mise à disposition selon les termes de la"
Comment4 ""
$EndDescr
$Comp
L LED D1
U 1 1 55CA3384
P 5350 3500
F 0 "D1" H 5350 3600 50  0000 C CNN
F 1 "LED" H 5350 3400 50  0000 C CNN
F 2 "" H 5350 3500 60  0000 C CNN
F 3 "" H 5350 3500 60  0000 C CNN
	1    5350 3500
	0    1    1    0   
$EndComp
$Comp
L POT RV1
U 1 1 55CA34B7
P 8550 4150
F 0 "RV1" H 8550 4050 50  0000 C CNN
F 1 "5k" H 8550 4150 50  0000 C CNN
F 2 "" H 8550 4150 60  0000 C CNN
F 3 "" H 8550 4150 60  0000 C CNN
	1    8550 4150
	1    0    0    -1  
$EndComp
$Comp
L Photores R3
U 1 1 55CA3532
P 7200 2800
F 0 "R3" V 7280 2800 50  0000 C CNN
F 1 "Photores" V 7410 2800 50  0000 C TNN
F 2 "" V 7130 2800 30  0000 C CNN
F 3 "" H 7200 2800 30  0000 C CNN
	1    7200 2800
	1    0    0    -1  
$EndComp
$Comp
L R R2
U 1 1 55CA3578
P 5350 2950
F 0 "R2" V 5430 2950 50  0000 C CNN
F 1 "200" V 5357 2951 50  0000 C CNN
F 2 "" V 5280 2950 30  0000 C CNN
F 3 "" H 5350 2950 30  0000 C CNN
	1    5350 2950
	1    0    0    -1  
$EndComp
$Comp
L R R4
U 1 1 55CA35FD
P 7200 3500
F 0 "R4" V 7280 3500 50  0000 C CNN
F 1 "200" V 7207 3501 50  0000 C CNN
F 2 "" V 7130 3500 30  0000 C CNN
F 3 "" H 7200 3500 30  0000 C CNN
	1    7200 3500
	1    0    0    -1  
$EndComp
$Comp
L CONN_01X01 P1
U 1 1 55CA36CF
P 2250 3700
F 0 "P1" H 2250 3800 50  0000 C CNN
F 1 "CONN_01X01" V 2350 3700 50  0001 C CNN
F 2 "" H 2250 3700 60  0000 C CNN
F 3 "" H 2250 3700 60  0000 C CNN
	1    2250 3700
	-1   0    0    1   
$EndComp
$Comp
L CONN_01X01 P4
U 1 1 55CA374A
P 9150 3250
F 0 "P4" H 9150 3350 50  0000 C CNN
F 1 "CONN_01X01" V 9250 3250 50  0001 C CNN
F 2 "" H 9150 3250 60  0000 C CNN
F 3 "" H 9150 3250 60  0000 C CNN
	1    9150 3250
	1    0    0    -1  
$EndComp
$Comp
L +3V3 #PWR1
U 1 1 55CA3945
P 2600 3650
F 0 "#PWR1" H 2600 3500 60  0001 C CNN
F 1 "+3V3" H 2600 3790 60  0000 C CNN
F 2 "" H 2600 3650 60  0000 C CNN
F 3 "" H 2600 3650 60  0000 C CNN
	1    2600 3650
	1    0    0    -1  
$EndComp
$Comp
L GND #PWR2
U 1 1 55CA3962
P 2600 4300
F 0 "#PWR2" H 2600 4050 60  0001 C CNN
F 1 "GND" H 2600 4150 60  0000 C CNN
F 2 "" H 2600 4300 60  0000 C CNN
F 3 "" H 2600 4300 60  0000 C CNN
	1    2600 4300
	1    0    0    -1  
$EndComp
$Comp
L CONN_01X01 P2
U 1 1 55CA39D7
P 2250 4250
F 0 "P2" H 2250 4350 50  0000 C CNN
F 1 "CONN_01X01" V 2350 4250 50  0001 C CNN
F 2 "" H 2250 4250 60  0000 C CNN
F 3 "" H 2250 4250 60  0000 C CNN
	1    2250 4250
	-1   0    0    1   
$EndComp
$Comp
L CONN_01X01 P3
U 1 1 55CA3A27
P 4150 4000
F 0 "P3" H 4150 4100 50  0000 C CNN
F 1 "CONN_01X01" V 4250 4000 50  0001 C CNN
F 2 "" H 4150 4000 60  0000 C CNN
F 3 "" H 4150 4000 60  0000 C CNN
	1    4150 4000
	-1   0    0    1   
$EndComp
$Comp
L R R5
U 1 1 55CA428C
P 7750 4500
F 0 "R5" V 7830 4500 50  0000 C CNN
F 1 "1k" V 7757 4501 50  0000 C CNN
F 2 "" V 7680 4500 30  0000 C CNN
F 3 "" H 7750 4500 30  0000 C CNN
	1    7750 4500
	1    0    0    -1  
$EndComp
$Comp
L +3V3 #PWR3
U 1 1 55CA4798
P 5350 2600
F 0 "#PWR3" H 5350 2450 60  0001 C CNN
F 1 "+3V3" H 5350 2740 60  0000 C CNN
F 2 "" H 5350 2600 60  0000 C CNN
F 3 "" H 5350 2600 60  0000 C CNN
	1    5350 2600
	1    0    0    -1  
$EndComp
$Comp
L +3V3 #PWR8
U 1 1 55CA47C7
P 8150 2750
F 0 "#PWR8" H 8150 2600 60  0001 C CNN
F 1 "+3V3" H 8150 2890 60  0000 C CNN
F 2 "" H 8150 2750 60  0000 C CNN
F 3 "" H 8150 2750 60  0000 C CNN
	1    8150 2750
	1    0    0    -1  
$EndComp
$Comp
L GND #PWR4
U 1 1 55CA47EA
P 5350 4300
F 0 "#PWR4" H 5350 4050 60  0001 C CNN
F 1 "GND" H 5350 4150 60  0000 C CNN
F 2 "" H 5350 4300 60  0000 C CNN
F 3 "" H 5350 4300 60  0000 C CNN
	1    5350 4300
	1    0    0    -1  
$EndComp
$Comp
L GND #PWR6
U 1 1 55CA4819
P 7200 3850
F 0 "#PWR6" H 7200 3600 60  0001 C CNN
F 1 "GND" H 7200 3700 60  0000 C CNN
F 2 "" H 7200 3850 60  0000 C CNN
F 3 "" H 7200 3850 60  0000 C CNN
	1    7200 3850
	1    0    0    -1  
$EndComp
$Comp
L GND #PWR7
U 1 1 55CA483C
P 7750 4850
F 0 "#PWR7" H 7750 4600 60  0001 C CNN
F 1 "GND" H 7750 4700 60  0000 C CNN
F 2 "" H 7750 4850 60  0000 C CNN
F 3 "" H 7750 4850 60  0000 C CNN
	1    7750 4850
	1    0    0    -1  
$EndComp
$Comp
L GND #PWR9
U 1 1 55CA485F
P 8150 3750
F 0 "#PWR9" H 8150 3500 60  0001 C CNN
F 1 "GND" H 8150 3600 60  0000 C CNN
F 2 "" H 8150 3750 60  0000 C CNN
F 3 "" H 8150 3750 60  0000 C CNN
	1    8150 3750
	1    0    0    -1  
$EndComp
$Comp
L +3V3 #PWR5
U 1 1 55CA50A1
P 7200 2450
F 0 "#PWR5" H 7200 2300 60  0001 C CNN
F 1 "+3V3" H 7200 2590 60  0000 C CNN
F 2 "" H 7200 2450 60  0000 C CNN
F 3 "" H 7200 2450 60  0000 C CNN
	1    7200 2450
	1    0    0    -1  
$EndComp
Text Notes 1250 3750 0    60   ~ 0
Connecter à P4.6
Text Notes 1250 4300 0    60   ~ 0
Connecter à P4.5
Text Notes 9350 3300 0    60   ~ 0
Connecter à P2.3
Text Notes 3750 3900 0    60   ~ 0
Connecter à P4.1
Text Notes 1200 3300 0    60   ~ 0
Alimentation
Text Notes 3650 2250 0    60   ~ 0
Émetteur
Text Notes 6800 2100 0    60   ~ 0
Récepteur
Wire Wire Line
	2450 3700 2600 3700
Wire Wire Line
	2600 3700 2600 3650
Wire Wire Line
	2450 4250 2600 4250
Wire Wire Line
	2600 4250 2600 4300
Wire Wire Line
	5050 4000 4950 4000
Wire Wire Line
	5350 3200 5350 3300
Wire Wire Line
	5350 2700 5350 2600
Wire Wire Line
	5350 4200 5350 4300
Wire Wire Line
	7200 3050 7200 3250
Wire Wire Line
	7200 3750 7200 3850
Wire Wire Line
	7200 2550 7200 2450
Wire Wire Line
	7750 3150 7200 3150
Connection ~ 7200 3150
Wire Wire Line
	8150 2850 8150 2750
Wire Wire Line
	8150 3650 8150 3750
Wire Wire Line
	7750 4750 7750 4850
Wire Wire Line
	7750 3350 7750 4250
Wire Wire Line
	8300 4150 7750 4150
Connection ~ 7750 4150
Wire Wire Line
	8750 3250 8950 3250
Wire Wire Line
	8850 3250 8850 4150
Wire Wire Line
	8850 4150 8800 4150
Connection ~ 8850 3250
Wire Notes Line
	1200 3300 2900 3300
Wire Notes Line
	2900 3300 2900 4600
Wire Notes Line
	2900 4600 1200 4600
Wire Notes Line
	1200 4600 1200 3300
Wire Notes Line
	3650 2250 5950 2250
Wire Notes Line
	5950 2250 5950 4600
Wire Notes Line
	5950 4600 3650 4600
Wire Notes Line
	3650 4600 3650 2250
Wire Notes Line
	6800 2100 10300 2100
Wire Notes Line
	10300 2100 10300 5100
Wire Notes Line
	10300 5100 6800 5100
Wire Notes Line
	6800 5100 6800 2100
Wire Wire Line
	8550 4000 8550 3950
Wire Wire Line
	8550 3950 8850 3950
Connection ~ 8850 3950
Text Notes 600  750  0    60   ~ 0
Connecter ce circuit aux ports PMOD du technoboard.\nPlus de détails au www.technoboard.ca
$Comp
L Q_NPN_CBE Q1
U 1 1 55CB9439
P 5250 4000
F 0 "Q1" H 5550 4050 50  0000 R CNN
F 1 "2222A" H 5850 3950 50  0000 R CNN
F 2 "" H 5450 4100 29  0000 C CNN
F 3 "" H 5250 4000 60  0000 C CNN
	1    5250 4000
	1    0    0    -1  
$EndComp
Wire Wire Line
	5350 3700 5350 3800
$Comp
L R R1
U 1 1 55CB9624
P 4700 4000
F 0 "R1" V 4780 4000 50  0000 C CNN
F 1 "15k" V 4707 4001 50  0000 C CNN
F 2 "" V 4630 4000 30  0000 C CNN
F 3 "" H 4700 4000 30  0000 C CNN
	1    4700 4000
	0    1    1    0   
$EndComp
Wire Wire Line
	4350 4000 4450 4000
$Comp
L LMC6484 U1
U 1 1 55CB9786
P 8250 3250
F 0 "U1" H 8200 3450 60  0000 L CNN
F 1 "LMC6484" H 8200 3000 60  0000 L CNN
F 2 "" H 8250 3250 60  0000 C CNN
F 3 "" H 8250 3250 60  0000 C CNN
	1    8250 3250
	1    0    0    -1  
$EndComp
$EndSCHEMATC
