PCBNEW-LibModule-V1  jeu 19 jun 2014 15:42:14 EDT
# encoding utf-8
Units mm
$INDEX
R3
R3_ref
$EndINDEX
$MODULE R3
Po 0 0 0 15 53A33C1B 00000000 ~~
Li R3
Cd Resitance 3 pas
Kw R
Sc 0
AR /5358078D/53580CA7
Op 0 A 0
T0 0 -2.032 1.397 1.27 0 0.2032 N V 21 N "R5"
T1 0 0.127 1.397 1.27 0 0.2032 N I 21 N "750"
DS -3.81 0 -3.302 0 0.2032 21
DS 3.81 0 3.302 0 0.2032 21
DS 3.302 0 3.302 -1.016 0.2032 21
DS 3.302 -1.016 -3.302 -1.016 0.2032 21
DS -3.302 -1.016 -3.302 1.016 0.2032 21
DS -3.302 1.016 3.302 1.016 0.2032 21
DS 3.302 1.016 3.302 0 0.2032 21
DS -3.302 -0.508 -2.794 -1.016 0.2032 21
$PAD
Sh "1" C 1.397 1.397 0 0 0
Dr 0.8128 0 0
At STD N 00E0FFFF
Ne 2 "N-0000026"
Po -3.81 0
$EndPAD
$PAD
Sh "2" C 1.397 1.397 0 0 0
Dr 0.8128 0 0
At STD N 00E0FFFF
Ne 1 "GND"
Po 3.81 0
$EndPAD
$SHAPE3D
Na "discret/resistor.wrl"
Sc 0.3 0.3 0.3
Of 0 0 0
Ro 0 0 0
$EndSHAPE3D
$EndMODULE R3
$MODULE R3_ref
Po 0 0 0 15 53A33D12 00000000 ~~
Li R3_ref
Cd Resitance 3 pas
Kw R
Sc 0
AR /5358078D/53580CA7
Op 0 A 0
T0 0 -2.032 1.397 1.27 0 0.2032 N V 21 N "R5"
T1 0 0.127 1.397 1.27 0 0.2032 N V 21 N "750"
DS -3.81 0 -3.302 0 0.2032 21
DS 3.81 0 3.302 0 0.2032 21
DS 3.302 0 3.302 -1.016 0.2032 21
DS 3.302 -1.016 -3.302 -1.016 0.2032 21
DS -3.302 -1.016 -3.302 1.016 0.2032 21
DS -3.302 1.016 3.302 1.016 0.2032 21
DS 3.302 1.016 3.302 0 0.2032 21
DS -3.302 -0.508 -2.794 -1.016 0.2032 21
$PAD
Sh "1" C 1.397 1.397 0 0 0
Dr 0.8128 0 0
At STD N 00E0FFFF
Ne 2 "N-0000026"
Po -3.81 0
$EndPAD
$PAD
Sh "2" C 1.397 1.397 0 0 0
Dr 0.8128 0 0
At STD N 00E0FFFF
Ne 1 "GND"
Po 3.81 0
$EndPAD
$SHAPE3D
Na "discret/resistor.wrl"
Sc 0.3 0.3 0.3
Of 0 0 0
Ro 0 0 0
$EndSHAPE3D
$EndMODULE R3_ref
$EndLIBRARY
