PCBNEW-LibModule-V1  jeu 19 jun 2014 12:54:48 EDT
# encoding utf-8
Units mm
$INDEX
T67K
$EndINDEX
$MODULE T67K
Po 0 0 0 15 53A30E28 00000000 ~~
Li T67K
Sc 0
AR 
Op 0 0 0
T0 -0.0635 -1.905 1 1 0 0.15 N V 21 N "T67K"
T1 0 5.207 1 1 0 0.15 N V 21 N "LED**"
DC 0 1.4605 0.635 2.0955 0.15 21
DS -1.4605 2.921 -1.4605 -0.0635 0.15 21
DS -1.4605 -0.0635 1.524 -0.0635 0.15 21
DS 1.524 -0.0635 1.524 2.921 0.15 21
DS 1.524 2.921 -1.4605 2.921 0.15 21
$PAD
Sh "1" R 2.5908 1.4986 0 0 0
Dr 0 0 0
At SMD N 00888000
Ne 0 ""
Po 0 0
$EndPAD
$PAD
Sh "2" R 2.5908 1.4986 0 0 0
Dr 0 0 0
At SMD N 00888000
Ne 0 ""
Po 0 2.9972
$EndPAD
$EndMODULE T67K
$EndLIBRARY
